﻿//***************************************
//+ Beispiel 9 - Minimal Beispiel
//***************************************
//Vorgangsnummer; Vorgangsbezeichnung; Dauer; Vorgänger; Nachfolger
1; Start; 1; -; -