﻿//***************************************
//+ Beispiel 11 aus dem Internet Geklaut
//***************************************
//Vorgangsnummer; Vorgangsbezeichnung; Dauer; Vorgänger; Nachfolger
1; Termin und Ort festlegen; 1; -; 2,3,4
2; Unterkunft suchen; 25; 1; 6
3; Anreise organisieren; 15; 1; 6
4; Informationen über den Ort einholen; 20; 1; 5
5; Planung des Wochenablaufs; 10; 4; 7
6; Informationsabend für die Eltern; 1; 2,3,4; 7
7; Genehmigung beantragen; 30; 5,6; 8
8; Abfahrt; 5; 7; -
