﻿//***************************************
//+ Beispiel 1 - Installation von POI Kiosken
//***************************************
//Vorgangsnummer; Vorgangsbezeichnung; Dauer; Vorgänger; Nachfolger
1; Planung des Projekts; 1; -; 2,4
2; Beschaffung der POI-Kioske; 25; 1; 3
3; Einrichtung der POI-Kioske; 10; 2; 6
4; Netzwerk installieren; 6; 1; 5
5; Netzwerk einrichten; 1; 4; 6
6; Aufbau der POI Kioske; 2; 3,5; 7
7; Tests und Nachbesserung der POI Kioske; 1; 6; -